{
    "translation_catalog": "settings-install_history",
    "entries": [
        {
            "path": "system_settings/info/install-history",
            "type": "page",
            "title": "Install History",
            "translation_id": "install-history-entry_name",
            "icon": "image://theme/icon-m-file-rpm",
            "order": 251,
            "params": {
                "source": "/usr/share/install-history/qml/pages/MainPage.qml"
            }
        }
    ]
}
